{
  "page": 1,
  "total_results": 1616,
  "total_pages": 81,
  "results": [
    {
      "popularity": 37.412,
      "vote_count": 20190,
      "video": false,
      "poster_path": "/pB8BM7pdSp6B6Ih7QZ4DrQ3PmJK.jpg",
      "id": 550,
      "adult": false,
      "backdrop_path": "/rr7E0NoGKxvbkb89eR1GwfoYjpA.jpg",
      "original_language": "en",
      "original_title": "Fight Club",
      "genre_ids": [
        18
      ],
      "title": "Fight Club",
      "vote_average": 8.4,
      "overview": "A ticking-time-bomb insomniac and a slippery soap salesman channel primal male aggression into a shocking new form of therapy. Their concept catches on, with underground \"fight clubs\" forming in every town, until an eccentric gets in the way and ignites an out-of-control spiral toward oblivion.",
      "release_date": "1999-10-15"
    },
    {
      "popularity": 19.556,
      "vote_count": 863,
      "video": false,
      "poster_path": "/huRhv4IZDk2ds0DIDkI6uxdmb6J.jpg",
      "id": 345922,
      "adult": false,
      "backdrop_path": "/2Koy6WwbtfCO7TGwG34mGcp8whd.jpg",
      "original_language": "en",
      "original_title": "Fist Fight",
      "genre_ids": [
        35
      ],
      "title": "Fist Fight",
      "vote_average": 6,
      "overview": "When one school teacher gets the other fired, he is challenged to an after-school fight.",
      "release_date": "2017-02-16"
    },
    {
      "popularity": 17.935,
      "id": 440777,
      "video": false,
      "vote_count": 56,
      "vote_average": 6.7,
      "title": "Female Fight Squad",
      "release_date": "2017-03-16",
      "original_language": "en",
      "original_title": "Female Fight Squad",
      "genre_ids": [
        28
      ],
      "backdrop_path": "/qziKhMyrVqj567jlbj55GpBdKf9.jpg",
      "adult": false,
      "overview": "A former fighter reluctantly returns to the life she abandoned in order to help her sister survive the sadistic world of illegal fighting and the maniac who runs it.",
      "poster_path": "/iI9c8XNdPuwB4RYbHMd62QNhoRK.jpg"
    },
    {
      "popularity": 9.964,
      "id": 653727,
      "video": false,
      "vote_count": 6,
      "vote_average": 5.8,
      "title": "The Fight",
      "release_date": "2020-07-31",
      "original_language": "en",
      "original_title": "The Fight",
      "genre_ids": [
        99
      ],
      "backdrop_path": "/yWgX04hozrmJZcfu9UDUFemyYfU.jpg",
      "adult": false,
      "overview": "Inside the ACLU, five scrappy lawyers battle against the Trump administration’s historic assault on civil liberties - from separating families at the border, to rolling back transgender, reproductive, and voting rights.",
      "poster_path": "/5gU6eIuIIBqiXPjRiCXtPMsDH9d.jpg"
    },
    {
      "popularity": 6.582,
      "id": 108251,
      "video": false,
      "vote_count": 25,
      "vote_average": 6.5,
      "title": "Girl Fight",
      "release_date": "2011-10-03",
      "original_language": "en",
      "original_title": "Girl Fight",
      "genre_ids": [
        18,
        10770
      ],
      "backdrop_path": "/fEtgzpmGhc9XZnXU1tatXWVJKZs.jpg",
      "adult": false,
      "overview": "Inspired by a true story, Girl Fight recounts the harrowing story of a 16-year-old, stellar high school student whose life spirals downward when her former friends conspire to upload onto the Internet a shocking video of them beating her up.",
      "poster_path": "/mie2uVWWI2iNlkSdHaOjk1J3irW.jpg"
    },
    {
      "popularity": 8.646,
      "vote_count": 69,
      "video": false,
      "poster_path": "/kfOmnlwt1rrhxmxc05X3i9mHSOs.jpg",
      "id": 14286,
      "adult": false,
      "backdrop_path": "/5eR0yLNVyalvzLdhuO8mWdd3ECk.jpg",
      "original_language": "en",
      "original_title": "Why We Fight",
      "genre_ids": [
        99,
        18,
        36
      ],
      "title": "Why We Fight",
      "vote_average": 7.7,
      "overview": "Is American foreign policy dominated by the idea of military supremacy? Has the military become too important in American life? Jarecki's shrewd and intelligent polemic would seem to give an affirmative answer to each of these questions.",
      "release_date": "2005-01-01"
    },
    {
      "popularity": 7.689,
      "vote_count": 9,
      "video": false,
      "poster_path": "/y0QXD8zSxpBsyQSKN9mg5diYexV.jpg",
      "id": 559578,
      "adult": false,
      "backdrop_path": "/fyGsmCm6op6c90WVYxhGxziOp3P.jpg",
      "original_language": "en",
      "original_title": "Alone We Fight",
      "genre_ids": [
        10752
      ],
      "title": "Alone We Fight",
      "vote_average": 4.2,
      "overview": "Facing mounting odds, a small but determined band of American soldiers venture into dangerous enemy territory on a mission to stop an advancing German unit from breaking through the Allied line.",
      "release_date": "2018-11-06"
    },
    {
      "popularity": 6.232,
      "id": 482986,
      "video": false,
      "vote_count": 8,
      "vote_average": 6.4,
      "title": "The Fight",
      "release_date": "2019-03-15",
      "original_language": "en",
      "original_title": "The Fight",
      "genre_ids": [
        35,
        18
      ],
      "backdrop_path": "/kUtVu31GzUWiMszQivJ8XPAmM2X.jpg",
      "adult": false,
      "overview": "Tina lives in a quiet seaside town but her life is anything but quiet - her mother is threatening to leave her father, her daughter is being bullied and she and her husband Mick are juggling full time jobs and three children. Determined to ditch the dysfunction and beat her inner demons, Tina puts on her fighting gloves - literally, stepping into the boxing ring to sweat out her anxieties and punch up her self-worth. But does she have what it takes to get her family off the ropes and emerge victorious?",
      "poster_path": "/g63cBAt8UBVudSfatwl8NwTwYTu.jpg"
    },
    {
      "popularity": 7.855,
      "vote_count": 22,
      "video": false,
      "poster_path": "/zbAWQ41NPaWbN0deyMuxF1ustmj.jpg",
      "id": 196355,
      "adult": false,
      "backdrop_path": null,
      "original_language": "en",
      "original_title": "Muhammad Ali's Greatest Fight",
      "genre_ids": [
        99,
        18
      ],
      "title": "Muhammad Ali's Greatest Fight",
      "vote_average": 6.4,
      "overview": "Muhammad Ali’s historic Supreme Court battle from behind closed doors. When Ali was drafted into the Vietnam War at the height of his boxing career, his claim to conscientious objector status led to a controversial legal battle that rattled the U.S. judicial system right up to the highest court in the land.",
      "release_date": "2013-10-04"
    },
    {
      "popularity": 8.288,
      "vote_count": 27,
      "video": false,
      "poster_path": "/qeceU9AsdHu9H6ZZax4MfeDj7A7.jpg",
      "id": 488971,
      "adult": false,
      "backdrop_path": "/ahK0FqZ4rQItacXuS1faxRo1WHW.jpg",
      "original_language": "en",
      "original_title": "You Can't Fight Christmas",
      "genre_ids": [
        35
      ],
      "title": "You Can't Fight Christmas",
      "vote_average": 5.5,
      "overview": "Christmas designer Leslie Major (Brely Evans) is the biggest fan of Christmas ever. She is like a tidal wave of Yuletide cheer. Her biggest job every year is decorating the lobby of the famed Chesterton Hotel. As she is on a ladder decorating the tree, she falls into the arms of Edmund James (Andra Fuller) - the grandson of the owner JJ James. Edmund is all business and thinks Christmas is superficial and frivolous.",
      "release_date": "2017-11-01"
    },
    {
      "popularity": 4.966,
      "id": 385383,
      "video": false,
      "vote_count": 18,
      "vote_average": 3.8,
      "title": "Fight Valley",
      "release_date": "2016-07-22",
      "original_language": "en",
      "original_title": "Fight Valley",
      "genre_ids": [
        28,
        18
      ],
      "backdrop_path": "/tofwMq4pvdjL71UrXbPqmxTAQ62.jpg",
      "adult": false,
      "overview": "When Tory Coro turns up dead, the neighborhood turns up silent. Rumor has it she became yet another victim of the small town known as FIGHT VALLEY. Tory's sister Windsor moves to town to begin her own investigation on her sister's mysterious death after weeks of no leads from the police. She's quick to learn that Tory fought for money to make ends meet. If girl-next-door Windsor is going to make her way into FIGHT VALLEY to find the truth about Tory, she's going to have to fight her way in. \"Jabs\" (Miesha Tate) swore she would never throw a punch in the Valley again. Jabs now finds herself training Windsor to survive the painful, unexpected path she's about to take. Every corner. Every alley. Every doorway. She must follow the last footsteps of her sister in order to come face-to-face with Tory's killer in FIGHT VALLEY.",
      "poster_path": "/jIPWkzF9srlU8eZTldLM6JYZwkO.jpg"
    },
    {
      "popularity": 5.379,
      "vote_count": 0,
      "video": false,
      "poster_path": "/mJUFdhHzc8PITzjh0ENiby3vkb8.jpg",
      "id": 682377,
      "adult": false,
      "backdrop_path": null,
      "original_language": "en",
      "original_title": "Chick Fight",
      "genre_ids": [],
      "title": "Chick Fight",
      "vote_average": 0,
      "overview": "When Anna Wyncomb is introduced to an an underground, all-female fight club in order to turn the mess of her life around, she discovers she is much more personally connected to the history of the club than she could ever imagine.",
      "release_date": "2020-11-13"
    },
    {
      "popularity": 4.427,
      "vote_count": 17,
      "video": false,
      "poster_path": "/1abhRslbpFUSCLD5S4cA3nvu4Kx.jpg",
      "id": 29044,
      "adult": false,
      "backdrop_path": "/9jQ1HfaioDfPqlGD52cpTEDi3Sq.jpg",
      "original_language": "en",
      "original_title": "Street Fight",
      "genre_ids": [
        99
      ],
      "title": "Street Fight",
      "vote_average": 7.7,
      "overview": "This documentary follows the 2002 mayoral campaign in Newark, New Jersey, in which a City Councilman, Cory Booker, attempted to unseat longtime mayor Sharpe James.",
      "release_date": "2005-01-01"
    },
    {
      "popularity": 11.587,
      "vote_count": 28,
      "video": true,
      "poster_path": "/2StM8Vavf7ukvuj9mxg1o7nKxmi.jpg",
      "id": 372631,
      "adult": false,
      "backdrop_path": "/yRbDw6Ly8MSQNDfLQNffHZuPZpS.jpg",
      "original_language": "en",
      "original_title": "Marvel Super Heroes Adventures: Frost Fight",
      "genre_ids": [
        16,
        14
      ],
      "title": "Marvel Super Heroes Adventures: Frost Fight",
      "vote_average": 6.1,
      "overview": "The holiday season gets extra chilly as Loki and the frost giant Ymir plot to conquer the world. Marvel heroes Iron Man, Captain America, Hulk, Thor and others must stop the villains from stealing Santa's power – if anyone can actually find the mysterious Mr. Claus. Fortunately, Rocket Raccoon and Groot are also hot on Santa's trail. Heroes, villains, elves and cosmic bounty hunters collide in an epic quest that leaves the fate of the holiday and the world in the balance.",
      "release_date": "2015-12-15"
    },
    {
      "popularity": 4.363,
      "vote_count": 35,
      "video": false,
      "poster_path": null,
      "id": 325365,
      "adult": false,
      "backdrop_path": null,
      "original_language": "en",
      "original_title": "Dawg Fight",
      "genre_ids": [
        99
      ],
      "title": "Dawg Fight",
      "vote_average": 6.6,
      "overview": "In a crime-plagued neighborhood near Miami, brutal, bare-knuckled backyard fights give young men a chance to earn money -- and self-respect.",
      "release_date": "2015-03-13"
    },
    {
      "popularity": 6.044,
      "vote_count": 71,
      "video": false,
      "poster_path": "/4caX3IZkf7n2QCbxaJO3hyn0SCm.jpg",
      "id": 45966,
      "adult": false,
      "backdrop_path": "/lt1Lan9bmG29JjqaMad5tkRpCHJ.jpg",
      "original_language": "en",
      "original_title": "Day of the Fight",
      "genre_ids": [
        99
      ],
      "title": "Day of the Fight",
      "vote_average": 5.9,
      "overview": "American short subject documentary film in black-and-white, which is notable as the first picture directed by Stanley Kubrick. Kubrick financed the film himself, and it is based on an earlier photo feature he had done as a photographer for Look magazine in 1949. 'Day of the Fight' shows Irish-American middleweight boxer Walter Cartier during the height of his career, on the day of a fight with black middleweight Bobby James, which took place on April 17, 1950.",
      "release_date": "1951-04-26"
    },
    {
      "popularity": 7.528,
      "id": 490928,
      "video": false,
      "vote_count": 15,
      "vote_average": 5.8,
      "title": "Craig Ferguson: Tickle Fight",
      "release_date": "2017-12-05",
      "original_language": "en",
      "original_title": "Craig Ferguson: Tickle Fight",
      "genre_ids": [
        35
      ],
      "backdrop_path": "/66b9q1FMazXuA3mrTYmwpgnMES8.jpg",
      "adult": false,
      "overview": "Cheeky comic Craig Ferguson keeps it casual as he discusses '70s porn, Japanese toilets and his mildly crime-filled days as a talk show host.",
      "poster_path": "/g8j9T4qDJiVLCIklZpsAydltRDC.jpg"
    },
    {
      "popularity": 7.117,
      "vote_count": 0,
      "video": false,
      "poster_path": "/r0POQlQMM2Iz91CMD5Di4SY4cic.jpg",
      "id": 744806,
      "adult": false,
      "backdrop_path": "/4qFN9r4NoIvan7dsicLbt2w7m1k.jpg",
      "original_language": "en",
      "original_title": "UFC Fight Night 178 Prelims",
      "genre_ids": [],
      "title": "UFC Fight Night 178 Prelims",
      "vote_average": 0,
      "overview": "Prelims:  Featherweight -Mirsad Bektić vs. Damon Jackson  Women’s Bantamweight - Jessica-Rose Clark vs. Sarah Alpar  Women’s Flyweight - Mara Romero Borella vs. Mayra Bueno Silva  Featherweight - Darrick Minner vs. T.J. Laramie  Bantamweight - Journey Newson vs. Randy Costa  Bantamweight - Andre Ewell vs. Irwin Rivera  Bantamweight - Tyson Nam vs. Jerome Rivera",
      "release_date": "2020-09-19"
    },
    {
      "popularity": 4.264,
      "id": 148526,
      "video": false,
      "vote_count": 13,
      "vote_average": 4.3,
      "title": "Forced To Fight",
      "release_date": "2011-08-31",
      "original_language": "en",
      "original_title": "Forced To Fight",
      "genre_ids": [
        53,
        28
      ],
      "backdrop_path": "/hZpRRra1g5QY0tE4ygpg0oZQnJH.jpg",
      "adult": false,
      "overview": "Once a legend in the brutal world of illicit underground fighting, Shane Slavin (Daniels) decides to turn his life around, promising his wife and young son he's fought his last battle. But when his younger brother betrays a ruthless crime boss (Weller), Shane is forced back into the arena to pay his brother's debts and to protect his family.",
      "poster_path": "/qVyOyga4g4QlMTmcyCbmtQC6Et9.jpg"
    },
    {
      "popularity": 3.033,
      "id": 98616,
      "video": false,
      "vote_count": 4,
      "vote_average": 8,
      "title": "Food Fight",
      "release_date": "2008-03-27",
      "original_language": "en",
      "original_title": "Food Fight",
      "genre_ids": [
        99
      ],
      "backdrop_path": null,
      "adult": false,
      "overview": "A fascinating look at how American agricultural policy and food culture developed in the 20th century, and how the California food movement rebelled against big agribusiness to launch the local organic food movement.",
      "poster_path": null
    }
  ]
}
